jpeg_decoder/jpeg_decoder.sim/sim_1/behav/xsim/simulate.log
Time resolution is 1 ps
e0ffd8ff
464a1000
01004649
01000001
00000100
4300dbff
05040600
06040506
07060506
0a080607
17 17 17
f0 f0 f0
5e 5e 5e
9a 9a 9a
83 83 83
8b 8b 8b
7c 7c 7c
85 85 85
ed ed ed
51 51 51
99 99 99
80 80 80
8a 8a 8a
82 82 82
85 85 85
82 82 82
46 46 46
92 92 92
78 78 78
8c 8c 8c
79 79 79
85 85 85
7e 7e 7e
7c 7c 7c
9f 9f 9f
7b 7b 7b
82 82 82
80 80 80
84 84 84
7d 7d 7d
7c 7c 7c
7f 7f 7f
61 61 61
83 83 83
79 79 79
81 81 81
7d 7d 7d
84 84 84
7e 7e 7e
81 81 81
8b 8b 8b
7f 7f 7f
81 81 81
83 83 83
88 88 88
88 88 88
87 87 87
88 88 88
7d 7d 7d
85 85 85
85 85 85
8d 8d 8d
88 88 88
91 91 91
91 91 91
8e 8e 8e
85 85 85
8b 8b 8b
8b 8b 8b
8f 8f 8f
8f 8f 8f
93 93 93
95 95 95
94 94 94
10 10 10
e8 e8 e8
57 57 57
94 94 94
7f 7f 7f
89 89 89
7c 7c 7c
86 86 86
ea ea ea
4e 4e 4e
95 95 95
7d 7d 7d
89 89 89
83 83 83
88 88 88
86 86 86
49 49 49
95 95 95
7a 7a 7a
8f 8f 8f
7c 7c 7c
89 89 89
84 84 84
83 83 83
a8 a8 a8
83 83 83
88 88 88
86 86 86
8a 8a 8a
84 84 84
84 84 84
87 87 87
6b 6b 6b
8c 8c 8c
81 81 81
86 86 86
82 82 82
88 88 88
83 83 83
86 86 86
92 92 92
85 85 85
85 85 85
84 84 84
87 87 87
86 86 86
85 85 85
86 86 86
7f 7f 7f
86 86 86
83 83 83
88 88 88
81 81 81
88 88 88
87 87 87
83 83 83
85 85 85
88 88 88
85 85 85
86 86 86
83 83 83
85 85 85
86 86 86
85 85 85
10 10 10
e8 e8 e8
57 57 57
94 94 94
7f 7f 7f
89 89 89
7c 7c 7c
86 86 86
ea ea ea
4e 4e 4e
95 95 95
7d 7d 7d
89 89 89
83 83 83
88 88 88
86 86 86
49 49 49
95 95 95
7a 7a 7a
8f 8f 8f
7c 7c 7c
89 89 89
84 84 84
83 83 83
a8 a8 a8
83 83 83
88 88 88
86 86 86
8a 8a 8a
84 84 84
84 84 84
87 87 87
6b 6b 6b
8c 8c 8c
81 81 81
86 86 86
82 82 82
88 88 88
83 83 83
86 86 86
92 92 92
85 85 85
85 85 85
84 84 84
87 87 87
86 86 86
85 85 85
86 86 86
7f 7f 7f
86 86 86
83 83 83
88 88 88
81 81 81
88 88 88
87 87 87
83 83 83
85 85 85
88 88 88
85 85 85
86 86 86
83 83 83
85 85 85
86 86 86
85 85 85
10 10 10
e8 e8 e8
57 57 57
94 94 94
7f 7f 7f
89 89 89
7c 7c 7c
86 86 86
ea ea ea
4e 4e 4e
95 95 95
7d 7d 7d
89 89 89
83 83 83
88 88 88
86 86 86
49 49 49
95 95 95
7a 7a 7a
8f 8f 8f
7c 7c 7c
89 89 89
84 84 84
83 83 83
a8 a8 a8
83 83 83
88 88 88
86 86 86
8a 8a 8a
84 84 84
84 84 84
87 87 87
6b 6b 6b
8c 8c 8c
81 81 81
86 86 86
82 82 82
88 88 88
83 83 83
86 86 86
92 92 92
85 85 85
85 85 85
84 84 84
87 87 87
86 86 86
85 85 85
86 86 86
7f 7f 7f
86 86 86
83 83 83
88 88 88
81 81 81
88 88 88
87 87 87
83 83 83
85 85 85
88 88 88
85 85 85
86 86 86
83 83 83
85 85 85
86 86 86
85 85 85
00 00 00
ff ff ff
00 00 00
ff ff ff
c4 bd bf
00 00 00
ff ff ff
17 26 21
94 9d 9a
ff ff ff
00 00 00
d7 cd d0
c5 be c0
00 00 00
ff ff ff
2d 3c 37
00 00 00
ff ff ff
00 00 00
fc f2 f5
e8 e1 e3
00 00 00
ff ff ff
0c 1b 16
66 6f 6c
ff ff ff
00 00 00
e2 d8 db
cc c5 c7
00 00 00
ff ff ff
3a 49 44
00 05 02
ff ff ff
00 00 00
f0 e6 e9
e1 da dc
00 00 00
ff ff ff
15 24 1f
44 4d 4a
ff ff ff
00 00 00
b6 ac af
e3 dc de
00 00 00
ff ff ff
3d 4c 47
0c 15 12
ff ff ff
00 00 00
e0 d6 d9
fa f3 f5
00 00 00
ff ff ff
37 46 41
23 2c 29
ff ff ff
00 00 00
cf c5 c8
e6 df e1
00 00 00
ff ff ff
2a 39 34
00 00 00
00 00 00
00 00 00
00 00 00
ff ff ff
d6 d6 d6
ff ff ff
ff ff ff
ff ff ff
ce ce ce
bb bb bb
be be be
37 37 37
76 76 76
4b 4b 4b
3c 3c 3c
00 00 00
6d 6d 6d
e2 e2 e2
52 52 52
9b 9b 9b
3a 3a 3a
98 98 98
ff ff ff
ff ff ff
ff ff ff
cc cc cc
ff ff ff
00 00 00
35 35 35
00 00 00
00 00 00
00 00 00
00 00 00
32 32 32
00 00 00
ff ff ff
a5 a5 a5
ff ff ff
ff ff ff
ff ff ff
b9 b9 b9
21 21 21
b5 b5 b5
13 13 13
ff ff ff
59 59 59
00 00 00
48 48 48
2b 2b 2b
8c 8c 8c
1c 1c 1c
f3 f3 f3
8d 8d 8d
ff ff ff
b2 b2 b2
ff ff ff
ff ff ff
c6 c6 c6
ff ff ff
00 00 00
2e 2e 2e
00 00 00
00 00 00
00 00 00
7d 7d 7d
2f 2f 2f
7c 7c 7c
99 99 99
c4 c4 c4
e4 e4 e4
f6 f6 f6
18 18 18
ff ff ff
ff ff ff
bf bf bf
4f 4f 4f
00 00 00
ff ff ff
ff ff ff
85 85 85
ff ff ff
00 00 00
4c 4c 4c
c9 c9 c9
00 00 00
33 33 33
56 56 56
ff ff ff
ff ff ff
ff ff ff
e7 e7 e7
1c 1c 1c
00 00 00
00 00 00
00 00 00
00 00 00
00 00 00
00 00 00
15 15 15
ff ff ff
ff ff ff
ff ff ff
ff ff ff
6a 6a 6a
00 00 00
ff ff ff
e8 e8 e8
1c 1c 1c
ff ff ff
ea ea ea
a5 a5 a5
ff ff ff
00 00 00
00 00 00
48 48 48
be be be
ff ff ff
00 00 00
00 00 00
ed ed ed
de de de
bf bf bf
a6 a6 a6
65 65 65
32 32 32
2e 2e 2e
15 15 15
00 00 00
ff ff ff
ff ff ff
ff ff ff
00 00 00
00 00 00
38 38 38
ff ff ff
ff ff ff
39 39 39
00 00 00
00 00 00
ff ff ff
ff ff ff
bd bd bd
00 00 00
ff ff ff
66 66 66
00 00 00
00 00 00
ff ff ff
ff ff ff
cb cb cb
00 00 00
00 00 00
aa aa aa
ff ff ff
ff ff ff
00 00 00
00 00 00
64 64 64
ff ff ff
00 00 00
bc bc bc
ff ff ff
ff ff ff
07 07 07
00 00 00
3e 3e 3e
ff ff ff
ff ff ff
53 53 53
00 00 00
24 24 24
ff ff ff
ff ff ff
9b 9b 9b
00 00 00
ff ff ff
57 57 57
00 00 00
06 06 06
fe fe fe
ff ff ff
ca ca ca
00 00 00
00 00 00
b8 b8 b8
ff ff ff
ef ef ef
01 01 01
00 00 00
5c 5c 5c
ff ff ff
00 00 00
ff ff ff
00 00 00
ff ff ff
00 00 00
ff ff ff
00 00 00
be be be
b3 b3 b3
df df df
00 00 00
ff ff ff
00 00 00
ff ff ff
00 00 00
b8 b8 b8
1d 1d 1d
ff ff ff
00 00 00
ff ff ff
00 00 00
ff ff ff
00 00 00
d3 d3 d3
89 89 89
f5 f5 f5
00 00 00
ff ff ff
00 00 00
ff ff ff
00 00 00
ad ad ad
32 32 32
ff ff ff
00 00 00
ff ff ff
00 00 00
ff ff ff
00 00 00
d0 d0 d0
6a 6a 6a
ff ff ff
00 00 00
ff ff ff
00 00 00
ff ff ff
00 00 00
a3 a3 a3
48 48 48
ff ff ff
00 00 00
ff ff ff
00 00 00
ff ff ff
00 00 00
d8 d8 d8
5f 5f 5f
ff ff ff
00 00 00
ff ff ff
00 00 00
ff ff ff
00 00 00
ae ae ae
00 00 00
ff ff d5
ff ff d4
bf c9 8d
3c 46 0a
00 00 00
50 5a 1e
ff ff e7
ff ff d4
3d 47 0b
70 7a 3e
91 9b 5f
8c 96 5a
b6 c0 84
90 9a 5e
57 61 25
e3 ed b1
56 60 24
00 00 00
24 2e 00
ff ff d3
ff ff e5
ce d8 9c
00 00 00
f1 fb bf
a4 ae 72
00 00 00
65 6f 33
a1 ab 6f
ff ff cf
7d 87 4b
45 4f 13
1a 24 00
a2 ac 70
f8 ff c6
89 93 57
6d 77 3b
04 0e 00
76 80 44
e4 ee b2
00 00 00
a4 ae 72
ff ff f1
ff ff f2
00 01 00
00 02 00
51 5b 1f
ff ff e0
63 6d 31
6a 74 38
c2 cc 90
9f a9 6d
7c 86 4a
59 63 27
92 9c 60
8c 96 5a
ff ff d1
81 8b 4f
00 00 00
23 2d 00
d6 e0 a4
ff ff f1
95 9f 63
17 21 00
00 00 00
c5 cf 93
a8 b2 76
00 00 00
f0 fa be
ff ff ff
ff ff ff
b6 c0 84
ff ff ff
ff ff ff
ff ff ff
ff ff ff
00 00 00
2d 37 00
11 1b 00
00 00 00
00 00 00
00 00 00
4c 56 1a
00 00 00
ff ff ff
ff ff ff
ff ff ff
ff ff ff
ff ff ff
d1 db 9f
eb f5 b9
ff ff ff
00 00 00
7f 89 4d
1a 24 00
00 00 00
ff ff f1
ff ff d8
8b 95 59
ff ff ff
00 00 00
18 22 00
2b 35 00
00 00 00
00 00 00
00 00 00
00 00 00
00 00 00
ff ff ff
c7 d1 95
ff ff ff
ff ff ff
ff ff ff
ff ff df
d4 de a2
ff ff ff
00 00 00
00 00 00
00 00 00
00 00 00
46 50 14
00 00 00
00 00 00
1f 29 00
ff ff ff
39 43 07
a9 b3 77
ff ff ff
3a 44 08
d7 e1 a5
63 6d 31
80 8a 4e
85 8f 53
7f 89 4d
83 8d 51
88 92 56
c0 ca 8e
54 5e 22
78 82 46
a5 af 73
74 7e 42
a4 ae 72
78 82 46
85 8f 53
63 6d 31
9d a7 6b
92 9c 60
68 72 36
8d 97 5b
7e 88 4c
82 8c 50
80 8a 4e
9d a7 6b
82 8c 50
5f 69 2d
7b 85 49
98 a2 66
78 82 46
95 9f 63
8f 99 5d
6f 79 3d
8c 96 5a
8b 95 59
ad b7 7b
88 92 56
93 9d 61
76 80 44
82 8c 50
8e 98 5c
87 91 55
77 81 45
88 92 56
78 82 46
79 83 47
96 a0 64
7b 85 49
8f 99 5d
79 83 47
94 9e 62
72 7c 40
8b 95 59
8d 97 5b
90 9a 5e
80 8a 4e
7f 89 4d
8a 94 58
80 8a 4e
8f 99 5d
84 8e 52
89 93 57
6e 78 3c
8f 99 5d
00 00 00
c5 cf 93
a8 b2 76
00 00 00
f0 fa be
ff ff ff
ff ff ff
b6 c0 84
ff ff ff
ff ff ff
ff ff ff
ff ff ff
00 00 00
2d 37 00
11 1b 00
00 00 00
00 00 00
00 00 00
4c 56 1a
00 00 00
ff ff ff
ff ff ff
ff ff ff
ff ff ff
ff ff ff
d1 db 9f
eb f5 b9
ff ff ff
00 00 00
7f 89 4d
1a 24 00
00 00 00
ff ff f1
ff ff d8
8b 95 59
ff ff ff
00 00 00
18 22 00
2b 35 00
00 00 00
00 00 00
00 00 00
00 00 00
00 00 00
ff ff ff
c7 d1 95
ff ff ff
ff ff ff
ff ff ff
ff ff df
d4 de a2
ff ff ff
00 00 00
00 00 00
00 00 00
00 00 00
46 50 14
00 00 00
00 00 00
1f 29 00
ff ff ff
39 43 07
a9 b3 77
ff ff ff
3a 44 08
d7 e1 a5
63 6d 31
80 8a 4e
85 8f 53
7f 89 4d
83 8d 51
88 92 56
c0 ca 8e
54 5e 22
78 82 46
a5 af 73
74 7e 42
a4 ae 72
78 82 46
85 8f 53
63 6d 31
9d a7 6b
92 9c 60
68 72 36
8d 97 5b
7e 88 4c
82 8c 50
80 8a 4e
9d a7 6b
82 8c 50
5f 69 2d
7b 85 49
98 a2 66
78 82 46
95 9f 63
8f 99 5d
6f 79 3d
8c 96 5a
8b 95 59
ad b7 7b
88 92 56
93 9d 61
76 80 44
82 8c 50
8e 98 5c
87 91 55
77 81 45
88 92 56
78 82 46
79 83 47
96 a0 64
7b 85 49
8f 99 5d
79 83 47
94 9e 62
72 7c 40
8b 95 59
8d 97 5b
90 9a 5e
80 8a 4e
7f 89 4d
8a 94 58
80 8a 4e
8f 99 5d
84 8e 52
89 93 57
6e 78 3c
8f 99 5d
00 00 00
c5 cf