jpeg_decoder/jpeg_decoder.sim/sim_1/behav/xsim/simulate.log
Time resolution is 1 ps
e0ffd8ff
464a1000
01004649
48000101
00004800
4300dbff
05040600
06040506
07060506
0a080607
85 94 92
88 97 95
83 a1 97
89 a7 9d
81 b4 9e
83 b6 a0
9e ac 9e
9e ac 9e
82 91 8f
86 95 93
81 9f 95
87 a5 9b
7e b1 9b
81 b4 9e
9b a9 9b
9b a9 9b
99 84 8c
9c 87 8f
9a 90 93
a0 96 99
93 a3 99
96 a6 9c
a3 a2 99
a3 a2 99
99 84 8c
9c 87 8f
9a 90 93
9f 95 98
93 a3 99
95 a5 9b
a2 a1 98
a2 a1 98
a3 7c 8a
a6 7f 8d
ae 84 8f
b3 89 94
a6 96 94
a8 98 96
a8 9a 95
a8 9a 95
9f 78 86
a2 7b 89
aa 80 8b
af 85 90
a2 92 90
a4 94 92
a4 96 91
a4 96 91
86 83 84
89 86 87
a3 81 8a
a8 86 8f
a7 8e 8f
a8 8f 90
a0 95 8f
a0 95 8f
87 84 85
8a 87 88
a4 82 8b
a9 87 90
a7 8e 8f
a9 90 91
a1 96 90
a0 95 8f
ad 8a 8b
ac 89 8a
91 97 88
91 97 88
73 a4 89
72 a3 88
81 9b 88
81 9b 88
ad 8a 8b
ac 89 8a
91 97 88
91 97 88
73 a4 89
72 a3 88
81 9b 88
81 9b 88
ae 89 8b
ad 88 8a
9b 92 88
9b 92 88
8d 97 89
8c 96 88
a8 87 89
a8 87 89
ae 89 8b
ad 88 8a
9b 92 88
9b 92 88
8d 97 89
8c 96 88
a8 87 89
a8 87 89
ab 8a 8b
aa 89 8a
a1 8e 8a
a1 8e 8a
a5 8b 8a
a4 8a 89
cb 76 89
cb 76 89
ab 8a 8b
aa 89 8a
a1 8e 8a
a1 8e 8a
a5 8b 8a
a4 8a 89
cb 76 89
cb 76 89
a3 8f 8b
a2 8e 8a
9a 92 8a
9a 92 8a
a0 8d 8a
9f 8c 89
c4 79 8b
c4 79 8b
a3 8f 8b
a2 8e 8a
9a 92 8a
9a 92 8a
a0 8d 8a
9f 8c 89
c4 79 8b
c4 79 8b
53 8a 75
57 8e 79
84 82 7e
8d 8b 87
9e 93 8f
a8 9d 99
a6 a8 9d
aa ac a1
52 89 74
56 8d 78
83 81 7d
8d 8b 87
9e 93 8f
a7 9c 98
a6 a8 9d
aa ac a1
49 8d 73
4d 91 77
7e 84 7d
87 8d 86
95 96 8c
9f a0 96
9c ac 9c
a0 b0 a0
49 8d 73
4c 90 76
7d 83 7c
86 8c 85
94 95 8b
9e 9f 95
9b ab 9b
9f af 9f
6a 79 6f
6e 7d 73
92 78 79
9b 81 82
99 91 8a
a3 9b 94
97 ab 9a
9b af 9e
6a 79 6f
6e 7d 73
91 77 78
9a 80 81
98 90 89
a2 9a 93
96 aa 99
9a ae 9d
90 64 6e
94 68 72
ab 68 77
b4 71 80
a1 8b 89
aa 94 92
97 a8 98
9b ac 9c
8f 63 6d
93 67 71
ab 68 77
b4 71 80
a0 8a 88
aa 94 92
97 a8 98
9b ac 9c
8a 85 7c
8b 86 7d
83 8a 7e
83 8a 7e
7e 8e 81
7f 8f 82
96 82 84
96 82 84
8b 86 7d
8c 87 7e
84 8b 7f
85 8c 80
7f 8f 82
80 90 83
97 83 85
97 83 85
8d 88 7f
8e 89 80
8b 8a 81
8c 8b 82
7b 94 84
7c 95 85
7f 92 87
7f 92 87
90 8b 82
90 8b 82
8e 8d 84
8e 8d 84
7e 97 87
7e 97 87
81 94 89
82 95 8a
9c 89 85
9c 89 85
a7 84 86
a8 85 87
97 8c 8b
98 8d 8c
91 91 8e
91 91 8e
9e 8b 87
9e 8b 87
aa 87 89
aa 87 89
9a 8f 8e
9a 8f 8e
94 94 91
94 94 91
a8 89 89
a8 89 89
c2 7d 8d
c2 7d 8d
b7 84 90
b7 84 90
ae 8a 93
ae 8a 93
a9 8a 8a
a9 8a 8a
c3 7e 8e
c3 7e 8e
b8 85 91
b9 86 92
af 8b 94
af 8b 94
a0 92 9e
7c 6e 7a
11 69 4c
1f 77 5a
73 b1 95
93 d1 b5
83 9a 85
47 5e 49
be b0 bc
bc ae ba
70 c8 ab
78 d0 b3
a9 e7 cb
b0 ee d2
a6 bd a8
7f 96 81
a3 39 64
ca 60 8b
9f 9f a0
9c 9c 9d
95 8b 87
82 78 74
80 68 61
80 68 61
a3 39 64
dd 73 9e
be be bf
ab ab ac
86 7c 78
6f 65 61
92 7a 73
be a6 9f
e6 54 8d
ff 7e b7
e3 b8 c7
c8 9d ac
a1 6b 74
94 5e 67
c3 8e 91
ff cf d2
e0 4e 87
eb 59 92
a8 7d 8c
98 6d 7c
8c 56 5f
84 4e 57
a0 6b 6e
cc 97 9a
cf 89 a8
c1 7b 9a
82 90 8c
93 a1 9d
bf a9 a6
b4 9e 9b
ac 82 7f
a5 7b 78
c1 7b 9a
a7 61 80
6b 79 75
9a a8 a4
e5 cf cc
d4 be bb
a1 77 74
71 47 44
00 25 05
2d 5f 3f
bf a0 a0
fb dc dc
ff d8 fa
ff ad cf
c2 8c 9e
95 5f 71
2f 61 41
4c 7e 5e
b6 97 97
d3 b4 b4
ff aa cc
ff 95 b7
cd 97 a9
b9 83 95
52 76 5b
62 86 6b
a0 98 90
ae a6 9e
e2 a2 b3
d6 96 a7
a0 ac a9
96 a2 9f
56 7a 5f
69 8d 72
aa a2 9a
b7 af a7
e6 a6 b7
d0 90 a1
8f 9b 98
7e 8a 87
8d b1 94
8c b0 93
9a b0 9e
8e a4 92
a1 9b 9a
94 8e 8d
5b ae 95
57 aa 91
d8 fc df
b0 d4 b7
88 9e 8c
54 6a 58
61 5b 5a
72 6c 6b
67 ba a1
85 d8 bf
f2 ff fa
bd e3 c5
84 9a 88
40 56 44
4c 42 45
65 5b 5e
6b b7 a3
94 e0 cc
ea ff f2
c1 e7 c9
97 ad 9b
5d 73 61
64 5a 5d
6c 62 65
5b a7 93
73 bf ab
7f a1 9d
7f a1 9d
58 b4 95
58 b4 95
88 9c 8b
88 9c 8b
ad 8a 83
ad 8a 83
7f a1 9d
7f a1 9d
58 b4 95
58 b4 95
88 9c 8b
88 9c 8b
ad 8a 83
ad 8a 83
72 a7 9d
72 a7 9d
54 b6 95
54 b6 95
8f 9a 89
8f 9a 89
bb 83 81
bb 83 81
72 a7 9d
72 a7 9d
54 b6 95
54 b6 95
8f 9a 89
8f 9a 89
bb 83 81
bb 83 81
9f 91 9e
9f 91 9e
7a a3 95
7a a3 95
aa 8c 87
aa 8c 87
c5 7e 7f
c5 7e 7f
9f 91 9e
9f 91 9e
7a a3 95
7a a3 95
aa 8c 87
aa 8c 87
c5 7e 7f
c5 7e 7f
c9 7b 9e
c9 7b 9e
9d 91 95
9d 91 95
be 82 87
be 82 87
c1 80 7f
c1 80 7f
c9 7b 9e
c9 7b 9e
9d 91 95
9d 91 95
be 82 87
be 82 87
c1 80 7f
c1 80 7f
9d aa 93
9d aa 93
b8 9b 9a
b7 9a 99
d8 87 a3
d8 87 a3
a7 9f aa
a7 9f aa
9a a7 90
9a a7 90
b5 98 97
b5 98 97
d5 84 a0
d5 84 a0
a4 9c a7
a4 9c a7
a7 99 89
a7 99 89
c6 87 92
c6 87 92
ef 6f 9d
ef 6f 9d
c2 84 a6
c2 84 a6
a2 94 84
a2 94 84
c0 81 8c
c0 81 8c
ea 6a 98
ea 6a 98
bc 7e a0
bc 7e a0
92 95 7f
92 95 7f
a0 8c 88
9f 8b 87
be 78 95
be 78 95
8e 8f 9e
8e 8f 9e
8f 92 7c
8e 91 7b
9c 88 84
9c 88 84
bb 75 92
bb 75 92
8a 8b 9a
8a 8b 9a
71 9e 78
71 9e 78
6a 9e 82
6a 9e 82
7b 92 90
7b 92 90
45 aa 99
45 aa 99
70 9d 77
70 9d 77
6a 9e 82
69 9d 81
7a 91 8f
7a 91 8f
45 aa 99
45 aa 99
a8 a4 40
a8 a4 40
a9 a2 4d
a9 a2 4d
a9 9e 63
a9 9e 63
a8 98 7c
a8 98 7c
a8 a4 40
a8 a4 40
a9 a2 4d
a9 a2 4d
a9 9e 63
a9 9e 63
a8 98 7c
a8 98 7c
a4 a5 43
a4 a5 43
a5 a4 4f
a5 a4 4f
a5 9f 66
a5 9f 66
a4 99 81
a4 99 81
a4 a5 43
a4 a5 43
a5 a4 4f
a5 a4 4f
a5 9f 66
a5 9f 66
a4 99 81
a4 99 81
a0 a7 45
a0 a7 45
a1 a5 53
a1 a5 53
a1 a1 6a
a1 a1 6a
a0 9a 89
a0 9a 89
a0 a7 45
a0 a7 45
a1 a5 53
a1 a5 53
a1 a1 6a
a1 a1 6a
a0 9a 89
a0 9a 89
a1 a6 43
a1 a6 43
a2 a4 53
a2 a4 53
a2 9f 6b
a2 9f 6b
a1 98 8c
a1 98 8c
a1 a6 43
a1 a6 43
a2 a4 53
a2 a4 53
a2 9f 6b
a2 9f 6b
a1 98 8c
a1 98 8c
a4 8e 96
a5 8f 97
a6 8b b3
a8 8d b5
aa 8b cc
ac 8d ce
ad 8c da
ae 8d db
a1 8b 93
a2 8c 94
a3 88 b0
a5 8a b2
a7 88 c9
a9 8a cb
aa 89 d7
ab 8a d8
99 88 95
9a 89 96
9b 85 b3
9d 87 b5
9f 84 cc
a1 86 ce
a2 85 dc
a3 86 dd
96 85 92
97 86 93
98 82 b0
9a 84 b2
9c 81 c9
9e 83 cb
9f 82 d9
a0 83 da
92 85 9a
92 85 9a
94 82 bb
95 83 bc
97 80 d6
99 82 d8
9b 81 e7
9b 81 e7
94 87 9c
95 88 9d
96 84 bd
98 86 bf
9a 83 d9
9c 85 db
9d 83 e9
9e 84 ea
99 89 a8
9a 8a a9
9b 84 cb
9d 86 cd
9f 83 ea
a0 84 eb
a2 84 f9
a3 85 fa
9c 8c ab
9c 8c ab
9e 87 ce
9f 88 cf
a1 85 ec
a3 87 ee
a5 87 fc
a5 87 fc
a8 a5 3d
a7 a4 3c
a6 a0 4b
a5 9f 4a
a4 99 64
a3 98 63
a3 91 88
a2 90 87
a7 a4 3c
a7 a4 3c
a6 a0 4b
a5 9f 4a
a4 99 64
a3 98 63
a2 90 87
a2 90 87
a8 a7 30
a8 a7 30
a7 a2 41
a6 a1 40
a5 9b 5b
a4 9a 5a
a3 91 80
a2 90 7f
a7 a6 2f
a7 a6 2f
a6 a1 40
a5 a0 3f
a4 9a 5a
a3 99 59
a2 90 7f
a2 90 7f
a4 a9 23
a3 a8 22
a2 a4 32
a1 a3 31
a0 9c 50
9f 9b 4f
9f 93 78
9e 92 77
a3 a8 22
a3 a8 22
a2 a4 32
a1 a3 31
a0 9c 50
9f 9b 4f
9e 92 77
9d 91 76
9e ad 1a
9d ac 19
9c a7 2a
9b a6 29
9a 9f 48
99 9e 47
98 95 71
98 95 71
9d ac 19
9d ac 19
9c a7 2a
9b a6 29
9a 9f 48
99 9e 47
98 95 71
98 95 71
a0 86 ac
a1 87 ad
a1 80 d1
a2 81 d2
a3 7d ef
a4 7e f0
a4 7b ff
a5 7c ff
a0 86 ac
a1 87 ad
a1 80 d1
a2 81 d2
a3 7d ef
a4 7e f0
a4 7b ff
a5 7c ff
a1 87 a9
a2 88 aa
a2 80 d1
a3 81 d2
a4 7d f1
a5 7e f2
a5 7b ff
a6 7c ff
a1 87 a9
a2 88 aa
a2 80 d1
a3 81 d2
a4 7d f1
a5 7e f2
a5 7b ff
a6 7c ff
9e 89 a3
9f 8a a4
9f 82 cd
a0 83 ce
a1 7e ef
a2 7f f0
a2 7c ff
a3 7d ff
9e 89 a3
9f 8a a4
9f 82 cd
a0 83 ce
a1 7e ef
a2 7f f0
a2 7c ff
a3 7d ff
99 8d a0
9a 8e a1
9a 85 cb
9b 86 cc
9c 81 ed
9d 82 ee
9d 7f ff
9e 80 ff
99 8d a0
9a 8e a1
9a 85 cb
9b 86 cc
9c 81 ed
9d 82 ee
9d 7f ff
9e 80 ff
ad 96 9b
ae 97 9c
b6 94 9d
b9 97 a0
c4 98 a2
c8 9c a6
d2 9d aa
d4 9f ac
b2 9b a0
b2 9b a0
b9 97 a0
bb 99 a2
c4 98 a2
c7 9b a5
cf 9a a7
d1 9c a9
bc 9c a4
bc 9c a4
bf 9b a4
bf 9b a4
c3 99 a2
c4 9a a3
c8 99 a4
c9 9a a5
bb 9b a3
bb 9b a3
bd 99 a2
bd 99 a2
c1 97 a0
c1 97 a0
c4 95 a0
c4 95 a0
ba 91 9c
ba 91 9c
ba 91 9c
bb 92 9d
b9 93 9b
b9 93 9b
b9 93 9b
b9 93 9b
b4 8b 96
b5 8c 97
b7 8e 99
b8 8f 9a
b8 92 9a
b8 92 9a
b9 93 9b
b9 93 9b
bd 8c 9a
bf 8e 9c
bd 93 9e
bf 95 a0
bd 99 a0
bd 99 a0
ba 9c a1
ba 9c a1
c5 94 a2
c6 95 a3
c4 9a a5
c6 9c a7
c4 a0 a7
c5 a1 a8
c1 a3 a8
c1 a3 a8
cf 9b a5
cd 99 a3
c4 99 a0
c4 99 a0
bf 9e a2
c1 a0 a4
bc a6 a4
bc a6 a4
c3 8f 99
c2 8e 98
bc 91 98
be 93 9a
bd 9c a0
c2 a1 a5
c0 aa a8
c2 ac aa
b5 87 8f
b5 87 8f
b4 8b 91
b9 90 96
bd 9a 9e
c5 a2 a6
c9 aa ab
cd ae af
b9 8b 93
b8 8a 92
b5 8c 92
b8 8f 95
bb 98 9c
c3 a0 a4
c6 a7 a8
ca ab ac
bd 98 9d
ba 95 9a
b7 92 97
b7 92 97
bc 94 9a
c1 99 9f
c5 9d a1
c7 9f a3
c1 9c a1
be 99 9e
ba 95 9a
b8 93 98
bc 94 9a
c0 98 9e
c4 9c a0
c6 9e a2
b9 9c 9e
b6 99 9b
b8 95 99
b9 96 9a
c1 98 9e
c8 9f a5
d2 a2 a9
d5 a5 ac
b4 97 99
b3 96 98
b7 94 98
bb 98 9c
c7 9e a4
d1 a8 ae
de ae b5
e3 b3 ba
c6 93 a1
c8 95 a3
c5 99 a5
c6 9a a6
c1 9d a4
c0 9c a3
ba 9c a1
b8 9a 9f
c8 95 a3
ca 97 a5
c7 9b a7
c8 9c a8
c3 9f a6
c2 9e a5
bc 9e a3
ba 9c a1
c8 99 a6
ca 9b a8
c9 9f aa
ca a0 ab
c6 a2 a9
c5 a1 a8
c0 a0 a6
be 9e a4
ca 9b a8
cc 9d aa
cb a1 ac
cc a2 ad
c8 a4 ab
c7 a3 aa
c2 a2 a8
c0 a0 a6
c6 9d a8
c7 9e a9
ca a1 ac
cb a2 ad
cb a2 ab
ca a1 aa
c7 9e a7
c6 9d a6
c3 9a a5
c5 9c a7
c7 9e a9
c8 9f aa
c8 9f a8
c7 9e a7
c5 9c a5
c3 9a a3
bb 99 a2
bc 9a a3
c1 9b a5
c3 9d a7
c6 9c a5
c4 9a a3
c3 97 a1
c2 96 a0
b8 96 9f
ba 98 a1
bf 99 a3
c1 9b a5
c4 9a a3
c2 98 a1
c1 95 9f
bf 93 9d
c7 aa ac
c3 a6 a8
c1 9e a2
bd 9a 9e
c3 98 9f
c8 9d a4
d4 a2 a9
d9 a7 ae
b6 99 9b
b4 97 99
b7 94 98
b6 93 97
bd 92 99
c0 95 9c
c8 96 9d
cb 99 a0
ae 8f 92
b0 91 94
b7 94 98
bb 98 9c
c1 98 9e
c0 97 9d
c2 94 9a
c1 93 99
b2 93 96
b7 98 9b
c2 9f a3
c7 a4 a8
cd a4 aa
c9 a0 a6
c7 99 9f
c3 95 9b
b9 91 97
be 96 9c
c4 9c a2
c9 a1 a7
ca a2 a8
c6 9e a4
bf 97 9b
bb 93 97
b5 8d 93
b7 8f 95
ba 92 98
bc 94 9a
bb 93 99
b9 91 97
b7 8f 93
b5 8d 91
c0 95 9c
be 93 9a
bb 92 98
b9 90 96
b6 91 96
b8 93 98
b8 97 99
ba 99 9b
d0 a5 ac
cc a1 a8
c5 9c a2
c1 98 9e
bf 9a 9f
c5 a0 a5
c9 a8 aa
cd ac ae
de a9 aa
dc a7 a8
d5 a8 a6
d8 ab a9
d9 b2 b0
dc b5 b3
dc b2 b1
da b0 af
dd a8 a9
da a5 a6
d3 a6 a4
d5 a8 a6
d4 ad ab
d6 af ad
d6 ac ab
d4 aa a9
d8 a9 a8
d5 a6 a5
ce a7 a3
ce a7 a3
cb ab a7
cb ab a7
cf a8 a6
cc a5 a3
d9 aa a9
d6 a7 a6
cf a8 a4
ce a7 a3
ca aa a6
cb ab a7
cf a8 a6
ce a7 a5
d3 af aa
d2 ae a9
cc ae a7
cb ad a6
c8 b0 a9
c9 b1 aa
cd af aa
cd af aa
d4 b0 ab
d3 af aa
cd af a8
cc ae a7
c9 b1 aa
ca b2 ab
d0 b2 ad
d1 b3 ae
ce b2 aa
cd b1 a9
c6 b1 a7
c4 af a5
c2 b0 a7
c3 b1 a8
c9 b1 aa
cb b3 ac
cc b0 a8
cb af a7
c4 af a5
c2 ad a3
be ac a3
bf ad a4
c5 ad a6
c8 b0 a9
d0 99 9e
d0 99 9e
d8 96 9f
d8 96 9f
da 96 a0
da 96 a0
d9 96 a2
da 97 a3
d0 99 9e
d0 99 9e
d7 95 9e
d8 96 9f
d9 95 9f
da 96 a0
d9 96 a2
da 97 a3
cc 9b 9e
cc 9b 9e
d3 97 9e
d4 98 9f
d4 98 9f
d5 99 a0
d3 99 a2
d3 99 a2
cb 9a 9d
cb 9a 9d
d3 97 9e
d3 97 9e
d4 98 9f
d4 98 9f
d3 99 a2
d3 99 a2
c5 9d 9d
c5 9d 9d
cc 9b 9e
cc 9b 9e
cd 9c 9f
cd 9c 9f
ca 9c a1
cb 9d a2
c5 9d 9d
c5 9d 9d
cb 9a 9d
cc 9b 9e
cc 9b 9e
cd 9c 9f
ca 9c a1
ca 9c a1
c0 9e 9c
c1 9f 9d
c5 9d 9d
c5 9d 9d
c5 9e 9e
c6 9f 9f
c3 a0 a1
c3 a0 a1
c0 9e 9c
c0 9e 9c
c5 9d 9d
c5 9d 9d
c5 9e 9e
c5 9e 9e
c3 a0 a1
c3 a0 a1
b0 97 8e
ae 95 8c
a9 94 8a
a9 94 8a
a8 96 8d
aa 98 8f
ae 96 8f
ae 96 8f
b2 99 90
b0 97 8e
ab 96 8c
ab 96 8c
aa 98 8f
ac 9a 91
b0 98 91
b0 98 91
b8 9a 93
b6 98 91
b1 98 8f
b1 98 8f
b2 9a 93
b3 9b 94
b8 9a 95
b7 99 94
bc 9e 97
ba 9c 95
b6 9d 94
b6 9d 94
b6 9e 97
b8 a0 99
bc 9e 99
bc 9e 99
c4 a0 9b
c3 9f 9a
be 9e 98
be 9e 98
c0 a0 9c
c2 a2 9e
c8 a1 9f
c8 a1 9f
c8 a4 9f
c7 a3 9e
c2 a2 9c
c3 a3 9d
c5 a5 a1
c7 a7 a3
cd a6 a4
cd a6 a4
cf a5 a2
ce a4 a1
cb a4 a0
cb a4 a0
cd a6 a4
cf a8 a6
d4 a7 a7
d4 a7 a7
d1 a7 a4
d0 a6 a3
cc a5 a1
cd a6 a2
cf a8 a6
d1 aa a8
d6 a9 a9
d6 a9 a9
af 8d 8b
8c 6a 68
a5 7e 7e
ae 87 87
c8 a6 a4
fa d8 d6
c4 a7 a6
ca ad ac
b0 8e 8c
92 70 6e
a5 7e 7e
aa 83 83
bf 9d 9b
f6 d4 d2
d9 bc bb
ee d1 d0
cd a5 a5
bb 93 93
c7 9d 9e
d0 a6 a7
d6 b2 b1
ee ca c9
c2 a3 a3
bf a0 a0
b1 89 89
a3 7b 7b
a2 78 79
bc 92 93
d2 ae ad
eb c7 c6
c8 a9 a9
b8 99 99
ff e3 e6
f9 c8 cb
c8 95 99
cb 98 9c
cb a1 a2
d7 ad ae
c7 a4 a5
b5 92 93
b4 83 86
b8 87 8a
99 66 6a
b6 83 87
b7 8d 8e
b4 8a 8b
ad 8a 8b
91 6e 6f
f2 bd c2
ff cd d2
e1 aa af
ff cb d0
f6 c7 ca
d5 a6 a9
be 96 99
8c 64 67
fc c7 cc
f5 c0 c5
ae 77 7c
c6 8f 94
c4 95 98
b9 8a 8d
bd 95 98
94 6c 6f
00 00 14
00 00 14
00 00 00
00 00 00
00 00 00
00 00 00
00 00 00
00 00 00
00 00 14
00 00 14
00 00 00
00 00 00
00 00 00
00 00 00
00 00 00
00 00 00
00 00 00
00 00 00
00 00 00
00 00 00
00 00 00
00 00 00
00 00 00
00 00 00
00 00 00
00 00 00
00 00 00
00 00 00
00 00 00
00 00 00
00 00 00
00 00 00
00 00 00
00 00 00
00 00 00
00 00 00
00 00 00
00 00 00
00 00 00
00 00 00
00 00 00
00 00 00
00 00 00
00 00 00
00 00 00
00 00 00
00 00 00
00 00 00
00 00 00
00 00 00
00 00 00
00 00 00
00 00 1d
00 00 1e
00 00 13
00 00 13
00 00 00
00 00 00
00 00 00
00 00 00
00 00 1d
00 00 1e
00 00 13
00 00 13
00 00 00
00 00 00
00 00 00
00 00 00
00 00 00
00 00 00
06 00 00
06 00 00
00 00 00
00 00 00
00 00 00
00 00 00
00 00 00
00 00 00
07 00 00
07 00 00
00 00 00
00 00 00
00 00 00
00 00 00
00 00 00
00 00 00
0a 00 00
09 00 00
00 00 00
00 00 00
00 00 00
00 00 00
00 00 00
00 00 00
0b 00 00
0b 00 00
00 00 00
00 00 00
00 00 00
00 00 00
01 00 00
01 00 00
0c 00 00
0b 00 00
00 00 00
00 00 00
00 00 00
00 00 00
01 00 00
01 00 00
0c 00 00
0c 00 00
00 00 00
00 00 00
00 00 00
00 00 00
01 00 00
00 00 00
0b 00 00
0b 00 00
00 00 00
00 00 00
00 00 00
00 00 00
00 00 00
00 00 00
0b 00 00
0b 00 00
00 00 00
00 00 00
00 00 00
00 00 00
00 00 1f
00 00 1f
00 00 06
00 00 06
00 00 00
00 00 00
00 00 00
00 00 00
00 00 1f
00 00 1f
00 00 06
00 00 06
00 00 00
00 00 00
00 00 00
00 00 00
00 00 00
00 00 00
00 00 00
00 00 00
00 00 00
00 00 00
00 00 00
00 00 00
00 00 00
00 00 00
00 00 00
00 00 00
00 00 00
00 00 00
00 00 00
00 00 00
00 00 00
00 00 00
00 00 00
00 00 00
00 00 00
00 00 00
00 00 00
00 00 00
00 00 00
00 00 00
00 00 00
00 00 00
00 00 3d
00 00 3d
00 00 00
00 00 00
00 00 00
00 00 00
00 00 00
00 00 00
00 00 3d
00 00 3d
00 00 00
00 00 00
00 00 00
00 00 00
00 00 00
00 00 00
00 00 00
00 00 00
00 00 00
00 00 00
06 00 00
08 00 00
15 00 01
16 00 02
00 00 00
00 00 00
00 00 00
00 00 00
06 00 00
08 00 00
15 00 01
15 00 01
00 00 00
00 00 00
00 00 00
00 00 00
06 00 00
07 00 00
15 00 00
15 00 00
00 00 00
00 00 00
00 00 00
00 00 00
05 00 00
07 00 00
14 00 00
15 00 00
00 00 00
00 00 00
00 00 00
00 00 00
07 00 00
09 00 00
15 00 00
15 00 00
00 00 00
00 00 00
00 00 00
00 00 00
07 00 00
08 00 00
15 00 00
15 00 00
00 00 00
00 00 00
00 00 27
00 00 29
07 00 00
08 00 00
14 00 00
15 00 00
00 00 00
00 00 00
00 00 27
00 00 29
06 00 00
08 00 00
14 00 00
15 00 00
00 00 00
00 00 00
00 00 00
03 00 00
00 00 00
01 00 00
00 00 00
00 00 00
00 00 00
00 00 00
00 00 00
00 00 00
00 00 00
00 00 00
00 00 00
00 00 00
00 00 00
00 00 00
00 00 00
00 00 00
00 00 00
00 00 00
00 00 00
00 00 00
00 00 00
00 00 00
00 00 00
00 00 00
00 00 00
00 00 00
00 00 00
00 00 00
00 00 00
00 00 00
00 00 00
00 00 00
00 00 00
00 00 00
00 00 00
00 00 00
00 00 00
00 00 00
00 00 00
00 00 00
00 00 00
00 00 00
00 00 00
00 00 00
00 00 00
00 00 00
00 00 00
00 00 00
00 00 00
00 00 00
00 00 00
00 00 00
00 00 00
00 00 00
00 00 00
00 00 00
00 00 00
00 00 00
00 00 00
00 00 00
00 00 00
00 00 00
00 00 00
00 00 00
00 00 00
00 00 00
00 00 00
00 00 00
00 00 00
00 00 00
00 00 00
00 00 00
00 00 00
00 00 00
00 00 00
00 00 00
00 00 00
00 00 00
00 00 00
00 00 00
00 00 00
00 00 00
00 00 00
00 00 00
00 00 00
00 00 00
00 00 00
00 00 00
00 00 00
00 00 00
00 00 00
00 00 00
00 00 00
00 00 00
00 00 00
00 00 00
00 00 00
00 00 00
00 00 00
00 00 00
00 00 00
00 00 00
00 00 00
00 00 00
00 00 00
00 00 00
00 00 00
00 00 00
00 00 00
00 00 00
00 00 00
00 00 00
00 00 00
00 00 00
00 00 00
00 00 00
00 00 00
00 00 00
00 00 00
00 00 00
00 00 00
00 00 00
00 00 00
00 00 00
00 00 00
00 00 00
00 00 00
00 00 00
00 00 00
00 00 00
00 00 00
00 00 00
00 00 00
00 00 00
00 00 00
00 00 00
00 00 00
00 00 00
00 00 00
00 00 00
00 00 00
00 00 00
00 00 00
00 00 00
00 00 00
00 00 00
00 00 00
00 00 00
00 00 00
00 00 00
00 00 00
00 00 00
00 00 00
00 00 00
00 00 00
00 00 00
00 00 00
00 00 00
00 00 00
00 00 00
00 00 00
00 00 00
00 00 00
00 00 00
00 00 00
00 00 00
00 00 00
00 00 00
00 00 00
00 00 00
00 00 00
00 00 00
00 00 00
00 00 00
00 00 00
00 00 00
00 00 00
00 00 00
00 00 0a
00 00 00
00 00 00
00 00 00
06 00 03
00 00 00
00 00 00
00 00 00
00 00 00
00 00 00
00 00 00
00 00 00
00 00 00
00 00 00
00 00 00
00 00 00
00 00 00
00 00 00
00 00 00
00 00 00
00 00 00
00 00 00
00 00 00
00 00 00
00 00 00
00 00 00
00 00 00
00 00 00
00 00 00
00 00 00
00 00 00
00 00 00
00 00 00
00 00 00
00 00 00
00 00 00
00 00 00
00 00 00
00 00 00
00 00 00
00 00 00
00 00 00
00 00 00
00 00 00
00 00 00
00 00 00
00 00 00
00 00 00
00 00 00
00 00 00
00 00 00
00 00 00
00 00 00
00 00 00
00 00 00
00 00 00
00 00 00
00 00 00
00 00 00
00 00 00
00 00 00
00 00 00
00 00 00
00 00 00
00 00 00
00 00 00
00 00 00
00 00 00
00 00 00
00 00 00
00 00 00
00 00 00
00 00 00
00 00 00
00 00 00
00 00 00
00 00 00
00 00 00
00 00 00
00 00 00
00 00 00
00 00 00
00 00 00
00 00 00
00 00 00
00 00 00
00 00 00
00 00 00
00 00 00
00 00 00
00 00 00
00 00 00
00 00 00
00 00 00
00 00 00
00 00 00
00 00 00
00 00 00
00 00 00
00 00 00
00 00 00
00 00 00
00 00 00
00 00 00
00 00 00
00 00 00
00 00 00
00 00 00
00 00 00
00 00 00
00 00 00
00 00 00
00 00 00
00 00 00
00 00 00
00 00 00
00 00 00
00 00 00
00 00 00
00 00 00
00 00 00
00 00 00
00 00 00
00 00 00
00 00 00
00 00 00
00 00 00
00 00 00
00 00 00
00 00 00
00 00 00
00 00 00
00 00 00
00 00 00
00 00 00
00 00 00
00 00 00
00 00 00
00 00 00
00 00 00
00 00 00
00 00 00
00 00 00
00 00 00
00 00 00
00 00 00
00 00 00
00 00 00
00 00 00
00 00 00
00 00 00
00 00 00
00 00 00
00 00 00
00 00 00
00 00 00
00 00 00
00 00 00
00 00 00
00 00 00
00 00 00
00 00 00
00 00 00
00 00 00
00 00 00
00 00 00
00 00 00
00 00 00
00 00 00
00 00 00
00 00 00
00 00 00
00 00 00
00 00 00
00 00 00
00 00 00
00 00 00
00 00 00
00 00 00
00 00 00
00 00 00
00 00 00
00 00 00
00 00 00
00 00 00
00 00 00
00 00 00
00 00 00
00 00 00
00 00 00
00 00 00
00 00 00
00 00 00
00 00 00
00 00 00
00 00 00
00 00 00
00 00 00
00 00 00
00 00 00
00 00 00
00 00 00
00 00 00
00 00 00
00 00 00
00 00 00
00 00 00
00 00 00
00 00 00
00 00 00
00 00 00
00 00 00
00 00 00
00 00 00
00 00 00
00 00 00
00 00 00
00 00 00
00 00 00
00 00 00
00 00 00
00 00 00
00 00 00
00 00 00
00 00 00
00 00 00
00 00 00
00 00 00
00 00 00
00 00 00
00 00 00
00 00 00
00 00 00
00 00 00
00 00 00
00 00 00
00 00 00
00 00 00
00 00 00
00 00 00
00 00 00
00 00 00
00 00 00
00 00 00
00 00 00
00 00 00
00 00 00
00 00 00
00 00 00
00 00 00
00 00 00
00 00 00
00 00 00
00 00 00
00 00 00
00 00 00
00 00 00
00 00 00
00 00 00
00 00 00
00 00 00
00 00 00
00 00 00
00 00 00
00 00 00
00 00 00
00 00 00
00 00 00
00 00 00
00 00 00
00 00 00
00 00 00
00 00 00
00 00 00
00 00 00
00 00 00
00 00 00
00 00 00
00 00 00
00 00 00
00 00 00
00 00 00
00 00 00
00 00 00
00 00 00
00 00 00
00 00 00
00 00 00
00 00 00
00 00 00
00 00 00
00 00 00
00 00 00
00 00 00
00 00 00
00 00 00
00 00 00
00 00 00
00 00 00
00 00 00
00 00 00
00 00 00
00 00 00
00 00 00
00 00 00
00 00 00
00 00 00
00 00 00
00 00 00
00 00 00
00 00 00
00 00 00
00 00 00
00 00 00
00 00 00
00 00 00
00 00 00
00 00 00
00 00 00
00 00 00
00 00 00
00 00 00
00 00 00
00 00 00
00 00 00
00 00 00
00 00 00
00 00 00
00 00 00
00 00 00
00 00 00
00 00 00
00 00 00
00 00 00
00 00 00
00 00 00
00 00 00
00 00 00
00 00 00
00 00 00
00 00 00
00 00 00
00 00 00
00 00 00
00 00 00
00 00 00
00 00 00
00 00 00
00 00 00
00 00 00
00 00 00
00 00 00
00 00 00
00 00 00
00 00 00
00 00 00
00 00 00
00 00 00
00 00 00
00 00 00
00 00 00
00 00 00
00 00 00
00 00 00
00 00 00
00 00 00
00 00 00
00 00 00
00 00 00
00 00 00
